…
    ## # A tibble: 6 × 11
    ##   manufacturer model displ  year   cyl trans      drv     cty   hwy fl    class 
    ##   <chr>        <chr> <dbl> <int> <int> <chr>      <chr> <int> <int> <chr> <chr> 
    ## 1 audi         a4      1.8  1999     4 auto(l5)   f        18    29 p     compa…
    ## 2 audi         a4      1.8  1999     4 manual(m5) f        21    29 p     compa…
    ## 3 audi         a4      2    2008     4 manual(m6) f        20    31 p     compa…
    ## 4 audi         a4      2    2008     4 auto(av)   f        21    30 p     compa…
    ## 5 audi         a4      2.8  1999     6 auto(l5)   f        16    26 p     compa…
    ## 6 audi         a4      2.8  1999     6 manual(m5) f        18    26 p     compa…

``` r
mpg %>% filter(manufacturer %in% c("audi","chevrolet")) %>% arrange(desc(year),manufacturer)
```

    ## # A tibble: 37 × 11
    ##    manufacturer model      displ  year   cyl trans drv     cty   hwy fl    class
    ##    <chr>        <chr>      <dbl> <int> <int> <chr> <chr> <int> <int> <chr> <chr>
    ##  1 audi         a4           2    2008     4 manu… f        20    31 p     comp…
    ##  2 audi         a4           2    2008     4 auto… f        21    30 p     comp…
    ##  3 audi         a4           3.1  2008     6 auto… f        18    27 p     comp…
    ##  4 audi         a4 quattro   2    2008     4 manu… 4        20    28 p     comp…
    ##  5 audi         a4 quattro   2    2008     4 auto… 4        19    27 p     comp…
    ##  6 audi         a4 quattro   3.1  2008     6 auto… 4        17    25 p     comp…
    ##  7 audi         a4 quattro   3.1  2008     6 manu… 4        15    25 p     comp…
    ##  8 audi         a6 quattro   3.1  2008     6 auto… 4        17    25 p     mids…
    ##  9 audi         a6 quattro   4.2  2008     8 auto… 4        16    23 p     mids…
    ## 10 chevrolet    c1500 sub…   5.3  2008     8 auto… r        14    20 r     suv  
    ## # ℹ 27 more rows
